---
source: spade-tests/src/integration.rs
expression: "std::str::from_utf8(buffer.as_slice()).expect(\"error contains invalid utf-8\")"
---
error: Ports can not be put in a register
  ┌─ testinput:2:18
  │
2 │     reg(clk) _ = a;
  │                  ^ This is a port
  │
  = &mut bool is a port


