---
source: spade-tests/src/typeinference.rs
expression: "std::str::from_utf8(buffer.as_slice()).expect(\"error contains invalid utf-8\")"
---
error: Type error
  ┌─ testinput:1:30
  │  
1 │   entity x(a: &bool) -> int<8> {
  │                         ------ int<8> type specified here
  │ ╭──────────────────────────────^
2 │ │     *a
3 │ │ }
  │ ╰─^ Found type bool
  │  
  = Expected: int<8>
  =      Got: bool


